waveforms/algorithms_tb.vcd
$date
     May 19, 2025       20:45:28
$end

$version
 SystemC 2.3.4-Accellera --- Nov  2 2023 12:43:11
$end

$timescale
     1 ps
$end

$scope module SystemC $end
$var wire    1  aaaaa  clk       $end
$var wire    8  aaaab  pc_value [7:0]  $end
$var wire    6  aaaac  opcode [5:0]  $end
$var wire   32  aaaad  alu_result [31:0]  $end
$var wire    1  aaaae  alu_zero       $end
$var wire    1  aaaaf  alu_negative       $end
$upscope $end
$enddefinitions  $end

$comment
All initial values are dumped below at time 0 sec = 0 timescale units.
$end

$dumpvars
1aaaaa
b0 aaaab
b0 aaaac
b0 aaaad
0aaaae
0aaaaf
$end

#5000
0aaaaa

#10000
1aaaaa

#15000
0aaaaa

#20000
1aaaaa
b100 aaaad

#25000
0aaaaa

#30000
1aaaaa

#35000
0aaaaa

#40000
1aaaaa
b1 aaaab

#45000
0aaaaa

#50000
1aaaaa

#55000
0aaaaa

#60000
1aaaaa

#65000
0aaaaa

#70000
1aaaaa
b0 aaaad

#75000
0aaaaa

#80000
1aaaaa

#85000
0aaaaa

#90000
1aaaaa
b10 aaaab

#95000
0aaaaa

#100000
1aaaaa
b110 aaaac

#105000
0aaaaa

#110000
1aaaaa

#115000
0aaaaa

#120000
1aaaaa
b11111111111111111111111110110111 aaaad
1aaaaf

#125000
0aaaaa

#130000
1aaaaa

#135000
0aaaaa

#140000
1aaaaa
b11 aaaab

#145000
0aaaaa

#150000
1aaaaa
b0 aaaac

#155000
0aaaaa

#160000
1aaaaa

#165000
0aaaaa

#170000
1aaaaa
b0 aaaad

#175000
0aaaaa

#180000
1aaaaa

#185000
0aaaaa

#190000
1aaaaa
b100 aaaab

#195000
0aaaaa

#200000
1aaaaa
b1010 aaaac

#205000
0aaaaa

#210000
1aaaaa

#215000
0aaaaa

#220000
1aaaaa

#225000
0aaaaa

#230000
1aaaaa

#235000
0aaaaa

#240000
1aaaaa
b110 aaaab

#245000
0aaaaa

#250000
1aaaaa
b1 aaaac

#255000
0aaaaa

#260000
1aaaaa

#265000
0aaaaa

#270000
1aaaaa
b1001001 aaaad

#275000
0aaaaa

#280000
1aaaaa

#285000
0aaaaa

#290000
1aaaaa
b111 aaaab

#295000
0aaaaa

#300000
1aaaaa
b1001 aaaac

#305000
0aaaaa

#310000
1aaaaa

#315000
0aaaaa

#320000
1aaaaa
b0 aaaad

#325000
0aaaaa

#330000
1aaaaa

#335000
0aaaaa

#340000
1aaaaa
b1001 aaaab

#345000
0aaaaa

#350000
1aaaaa
b110 aaaac

#355000
0aaaaa

#360000
1aaaaa

#365000
0aaaaa

#370000
1aaaaa
b11111111111111111111111111100111 aaaad

#375000
0aaaaa

#380000
1aaaaa

#385000
0aaaaa

#390000
1aaaaa
b1010 aaaab

#395000
0aaaaa

#400000
1aaaaa
b0 aaaac

#405000
0aaaaa

#410000
1aaaaa

#415000
0aaaaa

#420000
1aaaaa
b0 aaaad

#425000
0aaaaa

#430000
1aaaaa

#435000
0aaaaa

#440000
1aaaaa
b1011 aaaab

#445000
0aaaaa

#450000
1aaaaa
b1010 aaaac

#455000
0aaaaa

#460000
1aaaaa

#465000
0aaaaa

#470000
1aaaaa

#475000
0aaaaa

#480000
1aaaaa

#485000
0aaaaa

#490000
1aaaaa
b1101 aaaab

#495000
0aaaaa

#500000
1aaaaa
b1001 aaaac

#505000
0aaaaa

#510000
1aaaaa

#515000
0aaaaa

#520000
1aaaaa

#525000
0aaaaa

#530000
1aaaaa

#535000
0aaaaa

#540000
1aaaaa
b1110 aaaab

#545000
0aaaaa

#550000
1aaaaa
b0 aaaac

#555000
0aaaaa

#560000
1aaaaa

#565000
0aaaaa

#570000
1aaaaa
b110010 aaaad

#575000
0aaaaa

#580000
1aaaaa

#585000
0aaaaa

#590000
1aaaaa
b1111 aaaab

#595000
0aaaaa

#600000
1aaaaa

#605000
0aaaaa

#610000
1aaaaa

#615000
0aaaaa

#620000
1aaaaa
b0 aaaad

#625000
0aaaaa

#630000
1aaaaa

#635000
0aaaaa

#640000
1aaaaa
b10000 aaaab

#645000
0aaaaa

#650000
1aaaaa
b110 aaaac

#655000
0aaaaa

#660000
1aaaaa

#665000
0aaaaa

#670000
1aaaaa
1aaaae
0aaaaf

#675000
0aaaaa

#680000
1aaaaa

#685000
0aaaaa

#690000
1aaaaa
b10001 aaaab

#695000
0aaaaa

#700000
1aaaaa
b0 aaaac

#705000
0aaaaa

#710000
1aaaaa

#715000
0aaaaa

#720000
1aaaaa

#725000
0aaaaa

#730000
1aaaaa

#735000
0aaaaa

#740000
1aaaaa
b10010 aaaab

#745000
0aaaaa

#750000
1aaaaa
b1010 aaaac

#755000
0aaaaa

#760000
1aaaaa

#765000
0aaaaa

#770000
1aaaaa

#775000
0aaaaa

#780000
1aaaaa

#785000
0aaaaa

#790000
1aaaaa
b10011 aaaab

#795000
0aaaaa

#800000
1aaaaa
b0 aaaac

#805000
0aaaaa

#810000
1aaaaa

#815000
0aaaaa

#820000
1aaaaa

#825000
0aaaaa

#830000
1aaaaa

#835000
0aaaaa

#840000
1aaaaa
b10100 aaaab

#845000
0aaaaa

#850000
1aaaaa
b1 aaaac

#855000
0aaaaa

#860000
1aaaaa

#865000
0aaaaa

#870000
1aaaaa

#875000
0aaaaa

#880000
1aaaaa

#885000
0aaaaa

#890000
1aaaaa
b10101 aaaab

#895000
0aaaaa

#900000
1aaaaa
b1001 aaaac

#905000
0aaaaa

#910000
1aaaaa

#915000
0aaaaa

#920000
1aaaaa

#925000
0aaaaa

#930000
1aaaaa

#935000
0aaaaa

#940000
1aaaaa
b10000 aaaab

#945000
0aaaaa

#950000
1aaaaa
b110 aaaac

#955000
0aaaaa

#960000
1aaaaa

#965000
0aaaaa

#970000
1aaaaa

#975000
0aaaaa

#980000
1aaaaa

#985000
0aaaaa

#990000
1aaaaa
b10001 aaaab

#995000
0aaaaa

#1000000
1aaaaa
b0 aaaac

#1005000
0aaaaa

#1010000
1aaaaa

#1015000
0aaaaa

#1020000
1aaaaa

#1025000
0aaaaa

#1030000
1aaaaa

#1035000
0aaaaa

#1040000
1aaaaa
b10010 aaaab

#1045000
0aaaaa

#1050000
1aaaaa
b1010 aaaac

#1055000
0aaaaa

#1060000
1aaaaa

#1065000
0aaaaa

#1070000
1aaaaa

#1075000
0aaaaa

#1080000
1aaaaa

#1085000
0aaaaa

#1090000
1aaaaa
b10011 aaaab

#1095000
0aaaaa

#1100000
1aaaaa
b0 aaaac

#1105000
0aaaaa

#1110000
1aaaaa

#1115000
0aaaaa

#1120000
1aaaaa

#1125000
0aaaaa

#1130000
1aaaaa

#1135000
0aaaaa

#1140000
1aaaaa
b10100 aaaab

#1145000
0aaaaa

#1150000
1aaaaa
b1 aaaac

#1155000
0aaaaa

#1160000
1aaaaa

#1165000
0aaaaa

#1170000
1aaaaa

#1175000
0aaaaa

#1180000
1aaaaa

#1185000
0aaaaa

#1190000
1aaaaa
b10101 aaaab

#1195000
0aaaaa

#1200000
1aaaaa
b1001 aaaac

#1205000
0aaaaa

#1210000
1aaaaa

#1215000
0aaaaa

#1220000
1aaaaa

#1225000
0aaaaa

#1230000
1aaaaa

#1235000
0aaaaa

#1240000
1aaaaa
b10000 aaaab

#1245000
0aaaaa

#1250000
1aaaaa
b110 aaaac

#1255000
0aaaaa

#1260000
1aaaaa

#1265000
0aaaaa

#1270000
1aaaaa
b110 aaaad
0aaaae

#1275000
0aaaaa

#1280000
1aaaaa

#1285000
0aaaaa

#1290000
1aaaaa
b10001 aaaab

#1295000
0aaaaa

#1300000
1aaaaa
b0 aaaac

#1305000
0aaaaa

#1310000
1aaaaa

#1315000
0aaaaa

#1320000
1aaaaa
b0 aaaad

#1325000
0aaaaa

#1330000
1aaaaa

#1335000
0aaaaa

#1340000
1aaaaa
b10010 aaaab

#1345000
0aaaaa

#1350000
1aaaaa
b1010 aaaac

#1355000
0aaaaa

#1360000
1aaaaa

#1365000
0aaaaa

#1370000
1aaaaa

#1375000
0aaaaa

#1380000
1aaaaa

#1385000
0aaaaa

#1390000
1aaaaa
b10011 aaaab

#1395000
0aaaaa

#1400000
1aaaaa
b0 aaaac

#1405000
0aaaaa

#1410000
1aaaaa

#1415000
0aaaaa

#1420000
1aaaaa
b111 aaaad

#1425000
0aaaaa

#1430000
1aaaaa

#1435000
0aaaaa

#1440000
1aaaaa
b10100 aaaab

#1445000
0aaaaa

#1450000
1aaaaa
b1 aaaac

#1455000
0aaaaa

#1460000
1aaaaa

#1465000
0aaaaa

#1470000
1aaaaa
b101 aaaad

#1475000
0aaaaa

#1480000
1aaaaa

#1485000
0aaaaa

#1490000
1aaaaa
b10101 aaaab

#1495000
0aaaaa

#1500000
1aaaaa
b1001 aaaac

#1505000
0aaaaa

#1510000
1aaaaa

#1515000
0aaaaa

#1520000
1aaaaa
b0 aaaad

#1525000
0aaaaa

#1530000
1aaaaa

#1535000
0aaaaa

#1540000
1aaaaa
b10000 aaaab

#1545000
0aaaaa

#1550000
1aaaaa
b110 aaaac

#1555000
0aaaaa

#1560000
1aaaaa

#1565000
0aaaaa

#1570000
1aaaaa
b101 aaaad

#1575000
0aaaaa

#1580000
1aaaaa

#1585000
0aaaaa

#1590000
1aaaaa
b10001 aaaab

#1595000
0aaaaa

#1600000
1aaaaa
b0 aaaac

#1605000
0aaaaa

#1610000
1aaaaa

#1615000
0aaaaa

#1620000
1aaaaa
b0 aaaad

#1625000
0aaaaa

#1630000
1aaaaa

#1635000
0aaaaa

#1640000
1aaaaa
b10010 aaaab

#1645000
0aaaaa

#1650000
1aaaaa
b1010 aaaac

#1655000
0aaaaa

#1660000
1aaaaa

#1665000
0aaaaa

#1670000
1aaaaa

#1675000
0aaaaa

#1680000
1aaaaa

#1685000
0aaaaa

#1690000
1aaaaa
b10011 aaaab

#1695000
0aaaaa

#1700000
1aaaaa
b0 aaaac

#1705000
0aaaaa

#1710000
1aaaaa

#1715000
0aaaaa

#1720000
1aaaaa
b1110 aaaad

#1725000
0aaaaa

#1730000
1aaaaa

#1735000
0aaaaa

#1740000
1aaaaa
b10100 aaaab

#1745000
0aaaaa

#1750000
1aaaaa
b1 aaaac

#1755000
0aaaaa

#1760000
1aaaaa

#1765000
0aaaaa

#1770000
1aaaaa
b100 aaaad

#1775000
0aaaaa

#1780000
1aaaaa

#1785000
0aaaaa

#1790000
1aaaaa
b10101 aaaab

#1795000
0aaaaa

#1800000
1aaaaa
b1001 aaaac

#1805000
0aaaaa

#1810000
1aaaaa

#1815000
0aaaaa

#1820000
1aaaaa
b0 aaaad

#1825000
0aaaaa

#1830000
1aaaaa

#1835000
0aaaaa

#1840000
1aaaaa
b10000 aaaab

#1845000
0aaaaa

#1850000
1aaaaa
b110 aaaac

#1855000
0aaaaa

#1860000
1aaaaa

#1865000
0aaaaa

#1870000
1aaaaa
b100 aaaad

#1875000
0aaaaa

#1880000
1aaaaa

#1885000
0aaaaa

#1890000
1aaaaa
b10001 aaaab

#1895000
0aaaaa

#1900000
1aaaaa
b0 aaaac

#1905000
0aaaaa

#1910000
1aaaaa

#1915000
0aaaaa

#1920000
1aaaaa
b0 aaaad

#1925000
0aaaaa

#1930000
1aaaaa

#1935000
0aaaaa

#1940000
1aaaaa
b10010 aaaab

#1945000
0aaaaa

#1950000
1aaaaa
b1010 aaaac

#1955000
0aaaaa

#1960000
1aaaaa

#1965000
0aaaaa

#1970000
1aaaaa

#1975000
0aaaaa

#1980000
1aaaaa

#1985000
0aaaaa

#1990000
1aaaaa
b10011 aaaab

#1995000
0aaaaa

#2000000
1aaaaa
b0 aaaac

#2005000
0aaaaa

#2010000
1aaaaa

#2015000
0aaaaa

#2020000
1aaaaa
b10101 aaaad

#2025000
0aaaaa

#2030000
1aaaaa

#2035000
0aaaaa

#2040000
1aaaaa
b10100 aaaab

#2045000
0aaaaa

#2050000
1aaaaa
b1 aaaac

#2055000
0aaaaa

#2060000
1aaaaa

#2065000
0aaaaa

#2070000
1aaaaa
b11 aaaad

#2075000
0aaaaa

#2080000
1aaaaa

#2085000
0aaaaa

#2090000
1aaaaa
b10101 aaaab

#2095000
0aaaaa

#2100000
1aaaaa
b1001 aaaac

#2105000
0aaaaa

#2110000
1aaaaa

#2115000
0aaaaa

#2120000
1aaaaa
b0 aaaad

#2125000
0aaaaa

#2130000
1aaaaa

#2135000
0aaaaa

#2140000
1aaaaa
b10000 aaaab

#2145000
0aaaaa

#2150000
1aaaaa
b110 aaaac

#2155000
0aaaaa

#2160000
1aaaaa

#2165000
0aaaaa

#2170000
1aaaaa
b11 aaaad

#2175000
0aaaaa

#2180000
1aaaaa

#2185000
0aaaaa

#2190000
1aaaaa
b10001 aaaab

#2195000
0aaaaa

#2200000
1aaaaa
b0 aaaac

#2205000
0aaaaa

#2210000
1aaaaa

#2215000
0aaaaa

#2220000
1aaaaa
b0 aaaad

#2225000
0aaaaa

#2230000
1aaaaa

#2235000
0aaaaa

#2240000
1aaaaa
b10010 aaaab

#2245000
0aaaaa

#2250000
1aaaaa
b1010 aaaac

#2255000
0aaaaa

#2260000
1aaaaa

#2265000
0aaaaa

#2270000
1aaaaa

#2275000
0aaaaa

#2280000
1aaaaa

#2285000
0aaaaa

#2290000
1aaaaa
b10011 aaaab

#2295000
0aaaaa

#2300000
1aaaaa
b0 aaaac

#2305000
0aaaaa

#2310000
1aaaaa

#2315000
0aaaaa

#2320000
1aaaaa
b11100 aaaad

#2325000
0aaaaa

#2330000
1aaaaa

#2335000
0aaaaa

#2340000
1aaaaa
b10100 aaaab

#2345000
0aaaaa

#2350000
1aaaaa
b1 aaaac

#2355000
0aaaaa

#2360000
1aaaaa

#2365000
0aaaaa

#2370000
1aaaaa
b10 aaaad

#2375000
0aaaaa

#2380000
1aaaaa

#2385000
0aaaaa

#2390000
1aaaaa
b10101 aaaab

#2395000
0aaaaa

#2400000
1aaaaa
b1001 aaaac

#2405000
0aaaaa

#2410000
1aaaaa

#2415000
0aaaaa

#2420000
1aaaaa
b0 aaaad

#2425000
0aaaaa

#2430000
1aaaaa

#2435000
0aaaaa

#2440000
1aaaaa
b10000 aaaab

#2445000
0aaaaa

#2450000
1aaaaa
b110 aaaac

#2455000
0aaaaa

#2460000
1aaaaa

#2465000
0aaaaa

#2470000
1aaaaa
b10 aaaad

#2475000
0aaaaa

#2480000
1aaaaa

#2485000
0aaaaa

#2490000
1aaaaa
b10001 aaaab

#2495000
0aaaaa

#2500000
1aaaaa
b0 aaaac

#2505000
0aaaaa

#2510000
1aaaaa

#2515000
0aaaaa

#2520000
1aaaaa
b0 aaaad

#2525000
0aaaaa

#2530000
1aaaaa

#2535000
0aaaaa

#2540000
1aaaaa
b10010 aaaab

#2545000
0aaaaa

#2550000
1aaaaa
b1010 aaaac

#2555000
0aaaaa

#2560000
1aaaaa

#2565000
0aaaaa

#2570000
1aaaaa

#2575000
0aaaaa

#2580000
1aaaaa

#2585000
0aaaaa

#2590000
1aaaaa
b10011 aaaab

#2595000
0aaaaa

#2600000
1aaaaa
b0 aaaac

#2605000
0aaaaa

#2610000
1aaaaa

#2615000
0aaaaa

#2620000
1aaaaa
b100011 aaaad

#2625000
0aaaaa

#2630000
1aaaaa

#2635000
0aaaaa

#2640000
1aaaaa
b10100 aaaab

#2645000
0aaaaa

#2650000
1aaaaa
b1 aaaac

#2655000
0aaaaa

#2660000
1aaaaa

#2665000
0aaaaa

#2670000
1aaaaa
b1 aaaad

#2675000
0aaaaa

#2680000
1aaaaa

#2685000
0aaaaa

#2690000
1aaaaa
b10101 aaaab

#2695000
0aaaaa

#2700000
1aaaaa
b1001 aaaac

#2705000
0aaaaa

#2710000
1aaaaa

#2715000
0aaaaa

#2720000
1aaaaa
b0 aaaad

#2725000
0aaaaa

#2730000
1aaaaa

#2735000
0aaaaa

#2740000
1aaaaa
b10000 aaaab

#2745000
0aaaaa

#2750000
1aaaaa
b110 aaaac

#2755000
0aaaaa

#2760000
1aaaaa

#2765000
0aaaaa

#2770000
1aaaaa
b1 aaaad

#2775000
0aaaaa

#2780000
1aaaaa

#2785000
0aaaaa

#2790000
1aaaaa
b10001 aaaab

#2795000
0aaaaa

#2800000
1aaaaa
b0 aaaac

#2805000
0aaaaa

#2810000
1aaaaa

#2815000
0aaaaa

#2820000
1aaaaa
b0 aaaad

#2825000
0aaaaa

#2830000
1aaaaa

#2835000
0aaaaa

#2840000
1aaaaa
b10010 aaaab

#2845000
0aaaaa

#2850000
1aaaaa
b1010 aaaac

#2855000
0aaaaa

#2860000
1aaaaa

#2865000
0aaaaa

#2870000
1aaaaa

#2875000
0aaaaa

#2880000
1aaaaa

#2885000
0aaaaa

#2890000
1aaaaa
b10011 aaaab

#2895000
0aaaaa

#2900000
1aaaaa
b0 aaaac

#2905000
0aaaaa

#2910000
1aaaaa

#2915000
0aaaaa

#2920000
1aaaaa
b101010 aaaad

#2925000
0aaaaa

#2930000
1aaaaa

#2935000
0aaaaa

#2940000
1aaaaa
b10100 aaaab

#2945000
0aaaaa

#2950000
1aaaaa
b1 aaaac

#2955000
0aaaaa

#2960000
1aaaaa

#2965000
0aaaaa

#2970000
1aaaaa
b0 aaaad

#2975000
0aaaaa

#2980000
1aaaaa

#2985000
0aaaaa

#2990000
1aaaaa
b10101 aaaab

#2995000
0aaaaa

#3000000
1aaaaa
b1001 aaaac

#3005000
0aaaaa

#3010000
1aaaaa

#3015000
0aaaaa

#3020000
1aaaaa

#3025000
0aaaaa

#3030000
1aaaaa

#3035000
0aaaaa

#3040000
1aaaaa
b10000 aaaab

#3045000
0aaaaa

#3050000
1aaaaa
b110 aaaac

#3055000
0aaaaa

#3060000
1aaaaa

#3065000
0aaaaa

#3070000
1aaaaa
1aaaae

#3075000
0aaaaa

#3080000
1aaaaa

#3085000
0aaaaa

#3090000
1aaaaa
b10001 aaaab

#3095000
0aaaaa

#3100000
1aaaaa
b0 aaaac

#3105000
0aaaaa

#3110000
1aaaaa

#3115000
0aaaaa

#3120000
1aaaaa

#3125000
0aaaaa

#3130000
1aaaaa

#3135000
0aaaaa

#3140000
1aaaaa
b10010 aaaab

#3145000
0aaaaa

#3150000
1aaaaa
b1010 aaaac

#3155000
0aaaaa

#3160000
1aaaaa

#3165000
0aaaaa

#3170000
1aaaaa

#3175000
0aaaaa

#3180000
1aaaaa

#3185000
0aaaaa

#3190000
1aaaaa
b10011 aaaab

#3195000
0aaaaa

#3200000
1aaaaa
b0 aaaac

