waveforms/alu_tb.vcd
$date
     May 18, 2025       22:50:55
$end

$version
 SystemC 2.3.4-Accellera --- Nov  2 2023 12:43:11
$end

$timescale
     1 ps
$end

$scope module SystemC $end
$var wire   32  aaaaa  operand_s [31:0]  $end
$var wire   32  aaaab  operand_t [31:0]  $end
$var wire    6  aaaac  opcode [5:0]  $end
$var wire    1  aaaad  alu_execute       $end
$var wire   32  aaaae  result [31:0]  $end
$var wire    1  aaaaf  zero       $end
$var wire    1  aaaag  negative       $end
$upscope $end
$enddefinitions  $end

$comment
All initial values are dumped below at time 0 sec = 0 timescale units.
$end

$dumpvars
b1010 aaaaa
b10100 aaaab
b0 aaaac
1aaaad
b11110 aaaae
0aaaaf
0aaaag
$end

#1000
0aaaad

#2000
b11110 aaaaa
b1010 aaaab
b1 aaaac
1aaaad
b10100 aaaae

#3000
0aaaad

#4000
b1100 aaaaa
b10 aaaac
1aaaad
b1000 aaaae

#5000
0aaaad

#6000
b11 aaaac
1aaaad
b1110 aaaae

#7000
0aaaad

#8000
b1010 aaaaa
b110 aaaac
1aaaad
b0 aaaae
1aaaaf

#9000
0aaaad

#10000
b1001 aaaaa
1aaaad
b11111111111111111111111111111111 aaaae
0aaaaf
1aaaag

#11000
0aaaad

