waveforms/control_unit_tb.vcd
$date
     May 18, 2025       22:51:01
$end

$version
 SystemC 2.3.4-Accellera --- Nov  2 2023 12:43:11
$end

$timescale
     1 ps
$end

$scope module SystemC $end
$var wire    1  aaaaa  clk       $end
$var wire    6  aaaab  opcode [5:0]  $end
$var wire    1  aaaac  alu_zero       $end
$var wire    1  aaaad  alu_negative       $end
$var wire    6  aaaae  alu_opcode [5:0]  $end
$var wire    1  aaaaf  alu_execute       $end
$var wire    1  aaaag  pc_write       $end
$var wire    1  aaaah  pc_source       $end
$var wire    1  aaaai  reg_write       $end
$var wire    1  aaaaj  mem_to_reg       $end
$var wire    1  aaaak  inst_mem_read       $end
$var wire    1  aaaal  data_mem_read       $end
$var wire    1  aaaam  data_mem_write       $end
$upscope $end
$enddefinitions  $end

$comment
All initial values are dumped below at time 0 sec = 0 timescale units.
$end

$dumpvars
1aaaaa
b0 aaaab
0aaaac
0aaaad
b0 aaaae
0aaaaf
0aaaag
0aaaah
0aaaai
0aaaaj
1aaaak
0aaaal
0aaaam
$end

#5000
0aaaaa

#10000
1aaaaa
0aaaak

#15000
0aaaaa

#20000
1aaaaa
1aaaaf

#25000
0aaaaa

#30000
1aaaaa
0aaaaf

#35000
0aaaaa

#40000
1aaaaa
1aaaag
1aaaai

#45000
0aaaaa

#50000
1aaaaa
b1 aaaab
0aaaag
0aaaai
1aaaak

#55000
0aaaaa

#60000
1aaaaa
0aaaak

#65000
0aaaaa

#70000
1aaaaa
b1 aaaae
1aaaaf

#75000
0aaaaa

#80000
1aaaaa
b0 aaaae
0aaaaf

#85000
0aaaaa

#90000
1aaaaa
1aaaag
1aaaai

#95000
0aaaaa

#100000
1aaaaa
b10 aaaab
0aaaag
0aaaai
1aaaak

#105000
0aaaaa

#110000
1aaaaa
0aaaak

#115000
0aaaaa

#120000
1aaaaa
b10 aaaae
1aaaaf

#125000
0aaaaa

#130000
1aaaaa
b0 aaaae
0aaaaf

#135000
0aaaaa

#140000
1aaaaa
1aaaag
1aaaai

#145000
0aaaaa

#150000
1aaaaa
b11 aaaab
0aaaag
0aaaai
1aaaak

#155000
0aaaaa

#160000
1aaaaa
0aaaak

#165000
0aaaaa

#170000
1aaaaa
b11 aaaae
1aaaaf

#175000
0aaaaa

#180000
1aaaaa
b0 aaaae
0aaaaf

#185000
0aaaaa

#190000
1aaaaa
1aaaag
1aaaai

#195000
0aaaaa

#200000
1aaaaa
b100 aaaab
0aaaag
0aaaai
1aaaak

#205000
0aaaaa

#210000
1aaaaa
0aaaak

#215000
0aaaaa

#220000
1aaaaa
b100 aaaae
1aaaaf

#225000
0aaaaa

#230000
1aaaaa
b0 aaaae
0aaaaf

#235000
0aaaaa

#240000
1aaaaa
1aaaag
1aaaai

#245000
0aaaaa

#250000
1aaaaa
b101 aaaab
0aaaag
0aaaai
1aaaak

#255000
0aaaaa

#260000
1aaaaa
0aaaak

#265000
0aaaaa

#270000
1aaaaa
b101 aaaae
1aaaaf

#275000
0aaaaa

#280000
1aaaaa
b0 aaaae
0aaaaf

#285000
0aaaaa

#290000
1aaaaa
1aaaag
1aaaai

#295000
0aaaaa

#300000
1aaaaa
b1001 aaaab
0aaaag
0aaaai
1aaaak

#305000
0aaaaa

#310000
1aaaaa
0aaaak

#315000
0aaaaa

#320000
1aaaaa
b1001 aaaae
1aaaaf

#325000
0aaaaa

#330000
1aaaaa
b0 aaaae
0aaaaf

#335000
0aaaaa

#340000
1aaaaa
1aaaag
1aaaah

#345000
0aaaaa

#350000
1aaaaa
b1011 aaaab
1aaaac
0aaaag
0aaaah
1aaaak

#355000
0aaaaa

#360000
1aaaaa
0aaaak

#365000
0aaaaa

#370000
1aaaaa
b1011 aaaae
1aaaaf

#375000
0aaaaa

#380000
1aaaaa
b0 aaaae
0aaaaf

#385000
0aaaaa

#390000
1aaaaa
1aaaag
1aaaah

#395000
0aaaaa

#400000
1aaaaa
0aaaac
0aaaag
0aaaah
1aaaak

#405000
0aaaaa

#410000
1aaaaa
0aaaak

#415000
0aaaaa

#420000
1aaaaa
b1011 aaaae
1aaaaf

#425000
0aaaaa

#430000
1aaaaa
b0 aaaae
0aaaaf

#435000
0aaaaa

#440000
1aaaaa
1aaaag

#445000
0aaaaa

#450000
1aaaaa
b1010 aaaab
1aaaad
0aaaag
1aaaak

#455000
0aaaaa

#460000
1aaaaa
0aaaak

#465000
0aaaaa

#470000
1aaaaa
b1010 aaaae
1aaaaf

#475000
0aaaaa

#480000
1aaaaa
b0 aaaae
0aaaaf

#485000
0aaaaa

#490000
1aaaaa
1aaaag
1aaaah

#495000
0aaaaa

#500000
1aaaaa
0aaaad
0aaaag
0aaaah
1aaaak

#505000
0aaaaa

#510000
1aaaaa
0aaaak

#515000
0aaaaa

#520000
1aaaaa
b1010 aaaae
1aaaaf

#525000
0aaaaa

#530000
1aaaaa
b0 aaaae
0aaaaf

#535000
0aaaaa

#540000
1aaaaa
1aaaag

#545000
0aaaaa

#550000
1aaaaa
b111 aaaab
0aaaag
1aaaak

#555000
0aaaaa

#560000
1aaaaa
0aaaak

#565000
0aaaaa

#570000
1aaaaa
b111 aaaae
1aaaaf

#575000
0aaaaa

#580000
1aaaaa
b0 aaaae
0aaaaf
1aaaal

#585000
0aaaaa

#590000
1aaaaa
1aaaag
1aaaai
1aaaaj
0aaaal

#595000
0aaaaa

#600000
1aaaaa
b1000 aaaab
0aaaag
0aaaai
0aaaaj
1aaaak

#605000
0aaaaa

#610000
1aaaaa
0aaaak

#615000
0aaaaa

#620000
1aaaaa
b1000 aaaae
1aaaaf

#625000
0aaaaa

#630000
1aaaaa
b0 aaaae
0aaaaf
1aaaam

#635000
0aaaaa

#640000
1aaaaa
1aaaag
0aaaam

